projeto01/sender/ModelSim/transcript
vsim -gui work.sender_ic_tb
# vsim -gui work.sender_ic_tb 
# Start time: 21:39:39 on Oct 21,2022
# Loading work.sender_ic_tb
# Loading work.sender_ic
# Loading work.sender_control
# Loading work.sender
# Loading std.standard
# Loading std.textio(body)
# Loading ieee.std_logic_1164(body)
# Loading altera_mf.altera_mf_components
# Loading work.mem(syn)
# Loading ieee.std_logic_arith(body)
# Loading ieee.std_logic_unsigned(body)
# Loading altera_mf.altera_common_conversion(body)
# Loading altera_mf.altera_device_families(body)
# Loading altera_mf.altsyncram(translated)
do C:/Users/Leon/Desktop/universidade/PCID/projetos/projeto01/sender/ModelSim/wave.do
add wave -position insertpoint  \
sim:/sender_ic_tb/sdr_ic/b2v_inst/clk \
sim:/sender_ic_tb/sdr_ic/b2v_inst/Reset \
sim:/sender_ic_tb/sdr_ic/b2v_inst/data \
sim:/sender_ic_tb/sdr_ic/b2v_inst/write \
sim:/sender_ic_tb/sdr_ic/b2v_inst/start \
sim:/sender_ic_tb/sdr_ic/b2v_inst/state \
sim:/sender_ic_tb/sdr_ic/b2v_inst/next_state \
sim:/sender_ic_tb/sdr_ic/b2v_inst/counter \
sim:/sender_ic_tb/sdr_ic/b2v_inst/next_counter \
sim:/sender_ic_tb/sdr_ic/b2v_inst/Transmit \
sim:/sender_ic_tb/sdr_ic/b2v_inst/Ready \
sim:/sender_ic_tb/sdr_ic/b2v_inst/sdrDataIn \
sim:/sender_ic_tb/sdr_ic/b2v_inst/memDataIn \
sim:/sender_ic_tb/sdr_ic/b2v_inst/memDataOut \
sim:/sender_ic_tb/sdr_ic/b2v_inst/Address \
sim:/sender_ic_tb/sdr_ic/b2v_inst/WriteEnable
add wave -position insertpoint  \
sim:/sender_ic_tb/sdr_ic/b2v_inst2/clk \
sim:/sender_ic_tb/sdr_ic/b2v_inst2/Reset \
sim:/sender_ic_tb/sdr_ic/b2v_inst2/Transmit \
sim:/sender_ic_tb/sdr_ic/b2v_inst2/DataIn \
sim:/sender_ic_tb/sdr_ic/b2v_inst2/Ack \
sim:/sender_ic_tb/sdr_ic/b2v_inst2/Ready \
sim:/sender_ic_tb/sdr_ic/b2v_inst2/Request \
sim:/sender_ic_tb/sdr_ic/b2v_inst2/DataOut \
sim:/sender_ic_tb/sdr_ic/b2v_inst2/state \
sim:/sender_ic_tb/sdr_ic/b2v_inst2/next_state \
sim:/sender_ic_tb/sdr_ic/b2v_inst2/counter \
sim:/sender_ic_tb/sdr_ic/b2v_inst2/next_counter
add wave -position insertpoint  \
sim:/sender_ic_tb/sdr_ic/b2v_inst2/clk \
sim:/sender_ic_tb/sdr_ic/b2v_inst2/Reset \
sim:/sender_ic_tb/sdr_ic/b2v_inst2/Transmit \
sim:/sender_ic_tb/sdr_ic/b2v_inst2/DataIn \
sim:/sender_ic_tb/sdr_ic/b2v_inst2/Ack \
sim:/sender_ic_tb/sdr_ic/b2v_inst2/Ready \
sim:/sender_ic_tb/sdr_ic/b2v_inst2/Request \
sim:/sender_ic_tb/sdr_ic/b2v_inst2/DataOut \
sim:/sender_ic_tb/sdr_ic/b2v_inst2/state \
sim:/sender_ic_tb/sdr_ic/b2v_inst2/next_state \
sim:/sender_ic_tb/sdr_ic/b2v_inst2/counter \
sim:/sender_ic_tb/sdr_ic/b2v_inst2/next_counter
run
# time = 0 	 clk = 0 	 rst = 0 	 wrt = 0 	 str = 0 	 in  = 0 	 ack = 0 	 req = 0 	 out = 0
# time = 1 	 clk = 1 	 rst = 0 	 wrt = 0 	 str = 0 	 in  = 0 	 ack = 0 	 req = 0 	 out = 0
# time = 2 	 clk = 0 	 rst = 0 	 wrt = 0 	 str = 0 	 in  = 0 	 ack = 0 	 req = 0 	 out = 0
# time = 3 	 clk = 1 	 rst = 0 	 wrt = 0 	 str = 0 	 in  = 0 	 ack = 0 	 req = 0 	 out = 0
# time = 4 	 clk = 0 	 rst = 0 	 wrt = 0 	 str = 0 	 in  = 0 	 ack = 0 	 req = 0 	 out = 0
# time = 5 	 clk = 1 	 rst = 0 	 wrt = 0 	 str = 0 	 in  = 0 	 ack = 0 	 req = 0 	 out = 0
# time = 6 	 clk = 0 	 rst = 0 	 wrt = 0 	 str = 0 	 in  = 0 	 ack = 0 	 req = 0 	 out = 0
# time = 7 	 clk = 1 	 rst = 0 	 wrt = 0 	 str = 0 	 in  = 0 	 ack = 0 	 req = 0 	 out = 0
# time = 8 	 clk = 0 	 rst = 0 	 wrt = 0 	 str = 0 	 in  = 0 	 ack = 0 	 req = 0 	 out = 0
# time = 9 	 clk = 1 	 rst = 0 	 wrt = 0 	 str = 0 	 in  = 0 	 ack = 0 	 req = 0 	 out = 0
# time = 10 	 clk = 0 	 rst = 0 	 wrt = 0 	 str = 1 	 in  = 0 	 ack = 0 	 req = 0 	 out = 0
# time = 11 	 clk = 1 	 rst = 0 	 wrt = 0 	 str = 1 	 in  = 0 	 ack = 0 	 req = 0 	 out = 2000
# time = 12 	 clk = 0 	 rst = 0 	 wrt = 0 	 str = 0 	 in  = 0 	 ack = 0 	 req = 0 	 out = 2000
# time = 13 	 clk = 1 	 rst = 0 	 wrt = 0 	 str = 0 	 in  = 0 	 ack = 0 	 req = 0 	 out = 2000
# time = 14 	 clk = 0 	 rst = 0 	 wrt = 0 	 str = 0 	 in  = 0 	 ack = 0 	 req = 0 	 out = 2000
# time = 15 	 clk = 1 	 rst = 0 	 wrt = 0 	 str = 0 	 in  = 0 	 ack = 0 	 req = 0 	 out = 2000
# time = 16 	 clk = 0 	 rst = 0 	 wrt = 0 	 str = 0 	 in  = 0 	 ack = 0 	 req = 0 	 out = 2000
# time = 17 	 clk = 1 	 rst = 0 	 wrt = 0 	 str = 0 	 in  = 0 	 ack = 0 	 req = 0 	 out = 2000
# time = 18 	 clk = 0 	 rst = 0 	 wrt = 0 	 str = 0 	 in  = 0 	 ack = 0 	 req = 0 	 out = 2000
# time = 19 	 clk = 1 	 rst = 0 	 wrt = 0 	 str = 0 	 in  = 0 	 ack = 0 	 req = 0 	 out = 2000
# time = 20 	 clk = 0 	 rst = 0 	 wrt = 0 	 str = 0 	 in  = 0 	 ack = 0 	 req = 0 	 out = 2000
# time = 21 	 clk = 1 	 rst = 0 	 wrt = 0 	 str = 0 	 in  = 0 	 ack = 0 	 req = 1 	 out = 2000
# time = 22 	 clk = 0 	 rst = 0 	 wrt = 0 	 str = 0 	 in  = 0 	 ack = 0 	 req = 1 	 out = 2000
# time = 23 	 clk = 1 	 rst = 0 	 wrt = 0 	 str = 0 	 in  = 0 	 ack = 1 	 req = 1 	 out = 2000
# time = 24 	 clk = 0 	 rst = 0 	 wrt = 0 	 str = 0 	 in  = 0 	 ack = 1 	 req = 1 	 out = 2000
# time = 25 	 clk = 1 	 rst = 0 	 wrt = 0 	 str = 0 	 in  = 0 	 ack = 0 	 req = 0 	 out = 2000
# time = 26 	 clk = 0 	 rst = 0 	 wrt = 0 	 str = 0 	 in  = 0 	 ack = 0 	 req = 0 	 out = 2000
# time = 27 	 clk = 1 	 rst = 0 	 wrt = 0 	 str = 0 	 in  = 0 	 ack = 0 	 req = 0 	 out = 2000
# time = 28 	 clk = 0 	 rst = 0 	 wrt = 0 	 str = 0 	 in  = 0 	 ack = 0 	 req = 0 	 out = 2000
# time = 29 	 clk = 1 	 rst = 0 	 wrt = 0 	 str = 0 	 in  = 0 	 ack = 0 	 req = 0 	 out = 2000
# time = 30 	 clk = 0 	 rst = 0 	 wrt = 0 	 str = 0 	 in  = 0 	 ack = 0 	 req = 0 	 out = 2000
# time = 31 	 clk = 1 	 rst = 0 	 wrt = 0 	 str = 0 	 in  = 0 	 ack = 0 	 req = 1 	 out = 2000
# time = 32 	 clk = 0 	 rst = 0 	 wrt = 0 	 str = 0 	 in  = 0 	 ack = 0 	 req = 1 	 out = 2000
# time = 33 	 clk = 1 	 rst = 0 	 wrt = 0 	 str = 0 	 in  = 0 	 ack = 1 	 req = 1 	 out = 2000
# time = 34 	 clk = 0 	 rst = 0 	 wrt = 0 	 str = 0 	 in  = 0 	 ack = 1 	 req = 1 	 out = 2000
# time = 35 	 clk = 1 	 rst = 0 	 wrt = 0 	 str = 0 	 in  = 0 	 ack = 0 	 req = 0 	 out = 2000
# time = 36 	 clk = 0 	 rst = 0 	 wrt = 0 	 str = 0 	 in  = 0 	 ack = 0 	 req = 0 	 out = 2000
# time = 37 	 clk = 1 	 rst = 0 	 wrt = 0 	 str = 0 	 in  = 0 	 ack = 0 	 req = 0 	 out = 2000
# time = 38 	 clk = 0 	 rst = 0 	 wrt = 0 	 str = 0 	 in  = 0 	 ack = 0 	 req = 0 	 out = 2000
# time = 39 	 clk = 1 	 rst = 0 	 wrt = 0 	 str = 0 	 in  = 0 	 ack = 0 	 req = 0 	 out = 2001
# time = 40 	 clk = 0 	 rst = 0 	 wrt = 0 	 str = 0 	 in  = 0 	 ack = 0 	 req = 0 	 out = 2001
# time = 41 	 clk = 1 	 rst = 0 	 wrt = 0 	 str = 0 	 in  = 0 	 ack = 0 	 req = 1 	 out = 2001
# time = 42 	 clk = 0 	 rst = 0 	 wrt = 0 	 str = 0 	 in  = 0 	 ack = 0 	 req = 1 	 out = 2001
# time = 43 	 clk = 1 	 rst = 0 	 wrt = 0 	 str = 0 	 in  = 0 	 ack = 1 	 req = 1 	 out = 2001
# time = 44 	 clk = 0 	 rst = 0 	 wrt = 0 	 str = 0 	 in  = 0 	 ack = 1 	 req = 1 	 out = 2001
# time = 45 	 clk = 1 	 rst = 0 	 wrt = 0 	 str = 0 	 in  = 0 	 ack = 0 	 req = 0 	 out = 2001
# time = 46 	 clk = 0 	 rst = 0 	 wrt = 0 	 str = 0 	 in  = 0 	 ack = 0 	 req = 0 	 out = 2001
# time = 47 	 clk = 1 	 rst = 0 	 wrt = 0 	 str = 0 	 in  = 0 	 ack = 0 	 req = 0 	 out = 2001
# time = 48 	 clk = 0 	 rst = 0 	 wrt = 0 	 str = 0 	 in  = 0 	 ack = 0 	 req = 0 	 out = 2001
# time = 49 	 clk = 1 	 rst = 0 	 wrt = 0 	 str = 0 	 in  = 0 	 ack = 0 	 req = 0 	 out = 2002
# time = 50 	 clk = 0 	 rst = 0 	 wrt = 0 	 str = 0 	 in  = 0 	 ack = 0 	 req = 0 	 out = 2002
# time = 51 	 clk = 1 	 rst = 0 	 wrt = 0 	 str = 0 	 in  = 0 	 ack = 0 	 req = 1 	 out = 2002
# time = 52 	 clk = 0 	 rst = 0 	 wrt = 0 	 str = 0 	 in  = 0 	 ack = 0 	 req = 1 	 out = 2002
# time = 53 	 clk = 1 	 rst = 0 	 wrt = 0 	 str = 0 	 in  = 0 	 ack = 1 	 req = 1 	 out = 2002
# time = 54 	 clk = 0 	 rst = 0 	 wrt = 0 	 str = 0 	 in  = 0 	 ack = 1 	 req = 1 	 out = 2002
# time = 55 	 clk = 1 	 rst = 0 	 wrt = 0 	 str = 0 	 in  = 0 	 ack = 0 	 req = 0 	 out = 2002
# time = 56 	 clk = 0 	 rst = 0 	 wrt = 0 	 str = 0 	 in  = 0 	 ack = 0 	 req = 0 	 out = 2002
# time = 57 	 clk = 1 	 rst = 0 	 wrt = 0 	 str = 0 	 in  = 0 	 ack = 0 	 req = 0 	 out = 2002
# time = 58 	 clk = 0 	 rst = 0 	 wrt = 0 	 str = 0 	 in  = 0 	 ack = 0 	 req = 0 	 out = 2002
# time = 59 	 clk = 1 	 rst = 0 	 wrt = 0 	 str = 0 	 in  = 0 	 ack = 0 	 req = 0 	 out = 2003
# time = 60 	 clk = 0 	 rst = 0 	 wrt = 0 	 str = 0 	 in  = 0 	 ack = 0 	 req = 0 	 out = 2003
# time = 61 	 clk = 1 	 rst = 0 	 wrt = 0 	 str = 0 	 in  = 0 	 ack = 0 	 req = 1 	 out = 2003
# time = 62 	 clk = 0 	 rst = 0 	 wrt = 0 	 str = 0 	 in  = 0 	 ack = 0 	 req = 1 	 out = 2003
# time = 63 	 clk = 1 	 rst = 0 	 wrt = 0 	 str = 0 	 in  = 0 	 ack = 1 	 req = 1 	 out = 2003
# time = 64 	 clk = 0 	 rst = 0 	 wrt = 0 	 str = 0 	 in  = 0 	 ack = 1 	 req = 1 	 out = 2003
# time = 65 	 clk = 1 	 rst = 0 	 wrt = 0 	 str = 0 	 in  = 0 	 ack = 0 	 req = 0 	 out = 2003
# time = 66 	 clk = 0 	 rst = 0 	 wrt = 0 	 str = 0 	 in  = 0 	 ack = 0 	 req = 0 	 out = 2003
# time = 67 	 clk = 1 	 rst = 0 	 wrt = 0 	 str = 0 	 in  = 0 	 ack = 0 	 req = 0 	 out = 2003
# time = 68 	 clk = 0 	 rst = 0 	 wrt = 0 	 str = 0 	 in  = 0 	 ack = 0 	 req = 0 	 out = 2003
# time = 69 	 clk = 1 	 rst = 0 	 wrt = 0 	 str = 0 	 in  = 0 	 ack = 0 	 req = 0 	 out = 2004
# time = 70 	 clk = 0 	 rst = 0 	 wrt = 0 	 str = 0 	 in  = 0 	 ack = 0 	 req = 0 	 out = 2004
# time = 71 	 clk = 1 	 rst = 0 	 wrt = 0 	 str = 0 	 in  = 0 	 ack = 0 	 req = 1 	 out = 2004
# time = 72 	 clk = 0 	 rst = 0 	 wrt = 0 	 str = 0 	 in  = 0 	 ack = 0 	 req = 1 	 out = 2004
# time = 73 	 clk = 1 	 rst = 0 	 wrt = 0 	 str = 0 	 in  = 0 	 ack = 1 	 req = 1 	 out = 2004
# time = 74 	 clk = 0 	 rst = 0 	 wrt = 0 	 str = 0 	 in  = 0 	 ack = 1 	 req = 1 	 out = 2004
# time = 75 	 clk = 1 	 rst = 0 	 wrt = 0 	 str = 0 	 in  = 0 	 ack = 0 	 req = 0 	 out = 2004
# time = 76 	 clk = 0 	 rst = 0 	 wrt = 0 	 str = 0 	 in  = 0 	 ack = 0 	 req = 0 	 out = 2004
# time = 77 	 clk = 1 	 rst = 0 	 wrt = 0 	 str = 0 	 in  = 0 	 ack = 0 	 req = 0 	 out = 2004
# time = 78 	 clk = 0 	 rst = 0 	 wrt = 0 	 str = 0 	 in  = 0 	 ack = 0 	 req = 0 	 out = 2004
# time = 79 	 clk = 1 	 rst = 0 	 wrt = 0 	 str = 0 	 in  = 0 	 ack = 0 	 req = 0 	 out = 2005
# time = 80 	 clk = 0 	 rst = 0 	 wrt = 0 	 str = 0 	 in  = 0 	 ack = 0 	 req = 0 	 out = 2005
# time = 81 	 clk = 1 	 rst = 0 	 wrt = 0 	 str = 0 	 in  = 0 	 ack = 0 	 req = 1 	 out = 2005
# time = 82 	 clk = 0 	 rst = 0 	 wrt = 0 	 str = 0 	 in  = 0 	 ack = 0 	 req = 1 	 out = 2005
# time = 83 	 clk = 1 	 rst = 0 	 wrt = 0 	 str = 0 	 in  = 0 	 ack = 1 	 req = 1 	 out = 2005
# time = 84 	 clk = 0 	 rst = 0 	 wrt = 0 	 str = 0 	 in  = 0 	 ack = 1 	 req = 1 	 out = 2005
# time = 85 	 clk = 1 	 rst = 0 	 wrt = 0 	 str = 0 	 in  = 0 	 ack = 0 	 req = 0 	 out = 2005
# time = 86 	 clk = 0 	 rst = 0 	 wrt = 0 	 str = 0 	 in  = 0 	 ack = 0 	 req = 0 	 out = 2005
# time = 87 	 clk = 1 	 rst = 0 	 wrt = 0 	 str = 0 	 in  = 0 	 ack = 0 	 req = 0 	 out = 2005
# time = 88 	 clk = 0 	 rst = 0 	 wrt = 0 	 str = 0 	 in  = 0 	 ack = 0 	 req = 0 	 out = 2005
# time = 89 	 clk = 1 	 rst = 0 	 wrt = 0 	 str = 0 	 in  = 0 	 ack = 0 	 req = 0 	 out = 2006
# time = 90 	 clk = 0 	 rst = 0 	 wrt = 0 	 str = 0 	 in  = 0 	 ack = 0 	 req = 0 	 out = 2006
# time = 91 	 clk = 1 	 rst = 0 	 wrt = 0 	 str = 0 	 in  = 0 	 ack = 0 	 req = 1 	 out = 2006
# time = 92 	 clk = 0 	 rst = 0 	 wrt = 0 	 str = 0 	 in  = 0 	 ack = 0 	 req = 1 	 out = 2006
# time = 93 	 clk = 1 	 rst = 0 	 wrt = 0 	 str = 0 	 in  = 0 	 ack = 1 	 req = 1 	 out = 2006
# time = 94 	 clk = 0 	 rst = 0 	 wrt = 0 	 str = 0 	 in  = 0 	 ack = 1 	 req = 1 	 out = 2006
# time = 95 	 clk = 1 	 rst = 0 	 wrt = 0 	 str = 0 	 in  = 0 	 ack = 0 	 req = 0 	 out = 2006
# time = 96 	 clk = 0 	 rst = 0 	 wrt = 0 	 str = 0 	 in  = 0 	 ack = 0 	 req = 0 	 out = 2006
# time = 97 	 clk = 1 	 rst = 0 	 wrt = 0 	 str = 0 	 in  = 0 	 ack = 0 	 req = 0 	 out = 2006
# time = 98 	 clk = 0 	 rst = 0 	 wrt = 0 	 str = 0 	 in  = 0 	 ack = 0 	 req = 0 	 out = 2006
# time = 99 	 clk = 1 	 rst = 0 	 wrt = 0 	 str = 0 	 in  = 0 	 ack = 0 	 req = 0 	 out = 2007
# time = 100 	 clk = 0 	 rst = 0 	 wrt = 0 	 str = 0 	 in  = 0 	 ack = 0 	 req = 0 	 out = 2007
# time = 101 	 clk = 1 	 rst = 0 	 wrt = 0 	 str = 0 	 in  = 0 	 ack = 0 	 req = 1 	 out = 2007
# time = 102 	 clk = 0 	 rst = 0 	 wrt = 0 	 str = 0 	 in  = 0 	 ack = 0 	 req = 1 	 out = 2007
# time = 103 	 clk = 1 	 rst = 0 	 wrt = 0 	 str = 0 	 in  = 0 	 ack = 1 	 req = 1 	 out = 2007
# time = 104 	 clk = 0 	 rst = 0 	 wrt = 0 	 str = 0 	 in  = 0 	 ack = 1 	 req = 1 	 out = 2007
# time = 105 	 clk = 1 	 rst = 0 	 wrt = 0 	 str = 0 	 in  = 0 	 ack = 0 	 req = 0 	 out = 2007
# time = 106 	 clk = 0 	 rst = 0 	 wrt = 0 	 str = 0 	 in  = 0 	 ack = 0 	 req = 0 	 out = 2007
# time = 107 	 clk = 1 	 rst = 0 	 wrt = 0 	 str = 0 	 in  = 0 	 ack = 0 	 req = 0 	 out = 2007
# time = 108 	 clk = 0 	 rst = 0 	 wrt = 0 	 str = 0 	 in  = 0 	 ack = 0 	 req = 0 	 out = 2007
# time = 109 	 clk = 1 	 rst = 0 	 wrt = 0 	 str = 0 	 in  = 0 	 ack = 0 	 req = 0 	 out = 2008
# time = 110 	 clk = 0 	 rst = 0 	 wrt = 0 	 str = 0 	 in  = 0 	 ack = 0 	 req = 0 	 out = 2008
# time = 111 	 clk = 1 	 rst = 0 	 wrt = 0 	 str = 0 	 in  = 0 	 ack = 0 	 req = 1 	 out = 2008
# time = 112 	 clk = 0 	 rst = 0 	 wrt = 0 	 str = 0 	 in  = 0 	 ack = 0 	 req = 1 	 out = 2008
# time = 113 	 clk = 1 	 rst = 0 	 wrt = 0 	 str = 0 	 in  = 0 	 ack = 1 	 req = 1 	 out = 2008
# time = 114 	 clk = 0 	 rst = 0 	 wrt = 0 	 str = 0 	 in  = 0 	 ack = 1 	 req = 1 	 out = 2008
# time = 115 	 clk = 1 	 rst = 0 	 wrt = 0 	 str = 0 	 in  = 0 	 ack = 0 	 req = 0 	 out = 2008
# time = 116 	 clk = 0 	 rst = 0 	 wrt = 0 	 str = 0 	 in  = 0 	 ack = 0 	 req = 0 	 out = 2008
# time = 117 	 clk = 1 	 rst = 0 	 wrt = 0 	 str = 0 	 in  = 0 	 ack = 0 	 req = 0 	 out = 2008
# time = 118 	 clk = 0 	 rst = 0 	 wrt = 0 	 str = 0 	 in  = 0 	 ack = 0 	 req = 0 	 out = 2008
# time = 119 	 clk = 1 	 rst = 0 	 wrt = 0 	 str = 0 	 in  = 0 	 ack = 0 	 req = 0 	 out = 2009
# time = 120 	 clk = 0 	 rst = 0 	 wrt = 0 	 str = 0 	 in  = 0 	 ack = 0 	 req = 0 	 out = 2009
# time = 121 	 clk = 1 	 rst = 0 	 wrt = 0 	 str = 0 	 in  = 0 	 ack = 0 	 req = 1 	 out = 2009
# time = 122 	 clk = 0 	 rst = 0 	 wrt = 0 	 str = 0 	 in  = 0 	 ack = 0 	 req = 1 	 out = 2009
# time = 123 	 clk = 1 	 rst = 0 	 wrt = 0 	 str = 0 	 in  = 0 	 ack = 1 	 req = 1 	 out = 2009
# time = 124 	 clk = 0 	 rst = 0 	 wrt = 0 	 str = 0 	 in  = 0 	 ack = 1 	 req = 1 	 out = 2009
# time = 125 	 clk = 1 	 rst = 0 	 wrt = 0 	 str = 0 	 in  = 0 	 ack = 0 	 req = 0 	 out = 2009
# time = 126 	 clk = 0 	 rst = 0 	 wrt = 0 	 str = 0 	 in  = 0 	 ack = 0 	 req = 0 	 out = 2009
# time = 127 	 clk = 1 	 rst = 0 	 wrt = 0 	 str = 0 	 in  = 0 	 ack = 0 	 req = 0 	 out = 2009
# time = 128 	 clk = 0 	 rst = 0 	 wrt = 0 	 str = 0 	 in  = 0 	 ack = 0 	 req = 0 	 out = 2009
# time = 129 	 clk = 1 	 rst = 0 	 wrt = 0 	 str = 0 	 in  = 0 	 ack = 0 	 req = 0 	 out = 200a
# time = 130 	 clk = 0 	 rst = 0 	 wrt = 0 	 str = 0 	 in  = 0 	 ack = 0 	 req = 0 	 out = 200a
# time = 131 	 clk = 1 	 rst = 0 	 wrt = 0 	 str = 0 	 in  = 0 	 ack = 0 	 req = 1 	 out = 200a
# time = 132 	 clk = 0 	 rst = 0 	 wrt = 0 	 str = 0 	 in  = 0 	 ack = 0 	 req = 1 	 out = 200a
# time = 133 	 clk = 1 	 rst = 0 	 wrt = 0 	 str = 0 	 in  = 0 	 ack = 1 	 req = 1 	 out = 200a
# time = 134 	 clk = 0 	 rst = 0 	 wrt = 0 	 str = 0 	 in  = 0 	 ack = 1 	 req = 1 	 out = 200a
# time = 135 	 clk = 1 	 rst = 0 	 wrt = 0 	 str = 0 	 in  = 0 	 ack = 0 	 req = 0 	 out = 200a
# time = 136 	 clk = 0 	 rst = 0 	 wrt = 0 	 str = 0 	 in  = 0 	 ack = 0 	 req = 0 	 out = 200a
# time = 137 	 clk = 1 	 rst = 0 	 wrt = 0 	 str = 0 	 in  = 0 	 ack = 0 	 req = 0 	 out = 200a
# time = 138 	 clk = 0 	 rst = 0 	 wrt = 0 	 str = 0 	 in  = 0 	 ack = 0 	 req = 0 	 out = 200a
# time = 139 	 clk = 1 	 rst = 0 	 wrt = 0 	 str = 0 	 in  = 0 	 ack = 0 	 req = 0 	 out = 200b
# time = 140 	 clk = 0 	 rst = 0 	 wrt = 0 	 str = 0 	 in  = 0 	 ack = 0 	 req = 0 	 out = 200b
# time = 141 	 clk = 1 	 rst = 0 	 wrt = 0 	 str = 0 	 in  = 0 	 ack = 0 	 req = 1 	 out = 200b
# time = 142 	 clk = 0 	 rst = 0 	 wrt = 0 	 str = 0 	 in  = 0 	 ack = 0 	 req = 1 	 out = 200b
# time = 143 	 clk = 1 	 rst = 0 	 wrt = 0 	 str = 0 	 in  = 0 	 ack = 1 	 req = 1 	 out = 200b
# time = 144 	 clk = 0 	 rst = 0 	 wrt = 0 	 str = 0 	 in  = 0 	 ack = 1 	 req = 1 	 out = 200b
# time = 145 	 clk = 1 	 rst = 0 	 wrt = 0 	 str = 0 	 in  = 0 	 ack = 0 	 req = 0 	 out = 200b
# time = 146 	 clk = 0 	 rst = 0 	 wrt = 0 	 str = 0 	 in  = 0 	 ack = 0 	 req = 0 	 out = 200b
# time = 147 	 clk = 1 	 rst = 0 	 wrt = 0 	 str = 0 	 in  = 0 	 ack = 0 	 req = 0 	 out = 200b
# time = 148 	 clk = 0 	 rst = 0 	 wrt = 0 	 str = 0 	 in  = 0 	 ack = 0 	 req = 0 	 out = 200b
# time = 149 	 clk = 1 	 rst = 0 	 wrt = 0 	 str = 0 	 in  = 0 	 ack = 0 	 req = 0 	 out = 200c
# time = 150 	 clk = 0 	 rst = 0 	 wrt = 0 	 str = 0 	 in  = 0 	 ack = 0 	 req = 0 	 out = 200c
# time = 151 	 clk = 1 	 rst = 0 	 wrt = 0 	 str = 0 	 in  = 0 	 ack = 0 	 req = 1 	 out = 200c
# time = 152 	 clk = 0 	 rst = 0 	 wrt = 0 	 str = 0 	 in  = 0 	 ack = 0 	 req = 1 	 out = 200c
# time = 153 	 clk = 1 	 rst = 0 	 wrt = 0 	 str = 0 	 in  = 0 	 ack = 1 	 req = 1 	 out = 200c
# time = 154 	 clk = 0 	 rst = 0 	 wrt = 0 	 str = 0 	 in  = 0 	 ack = 1 	 req = 1 	 out = 200c
# time = 155 	 clk = 1 	 rst = 0 	 wrt = 0 	 str = 0 	 in  = 0 	 ack = 0 	 req = 0 	 out = 200c
# time = 156 	 clk = 0 	 rst = 0 	 wrt = 0 	 str = 0 	 in  = 0 	 ack = 0 	 req = 0 	 out = 200c
# time = 157 	 clk = 1 	 rst = 0 	 wrt = 0 	 str = 0 	 in  = 0 	 ack = 0 	 req = 0 	 out = 200c
# time = 158 	 clk = 0 	 rst = 0 	 wrt = 0 	 str = 0 	 in  = 0 	 ack = 0 	 req = 0 	 out = 200c
# time = 159 	 clk = 1 	 rst = 0 	 wrt = 0 	 str = 0 	 in  = 0 	 ack = 0 	 req = 0 	 out = 200d
# time = 160 	 clk = 0 	 rst = 0 	 wrt = 0 	 str = 0 	 in  = 0 	 ack = 0 	 req = 0 	 out = 200d
# time = 161 	 clk = 1 	 rst = 0 	 wrt = 0 	 str = 0 	 in  = 0 	 ack = 0 	 req = 1 	 out = 200d
# time = 162 	 clk = 0 	 rst = 0 	 wrt = 0 	 str = 0 	 in  = 0 	 ack = 0 	 req = 1 	 out = 200d
# time = 163 	 clk = 1 	 rst = 0 	 wrt = 0 	 str = 0 	 in  = 0 	 ack = 1 	 req = 1 	 out = 200d
# time = 164 	 clk = 0 	 rst = 0 	 wrt = 0 	 str = 0 	 in  = 0 	 ack = 1 	 req = 1 	 out = 200d
# time = 165 	 clk = 1 	 rst = 0 	 wrt = 0 	 str = 0 	 in  = 0 	 ack = 0 	 req = 0 	 out = 200d
# time = 166 	 clk = 0 	 rst = 0 	 wrt = 0 	 str = 0 	 in  = 0 	 ack = 0 	 req = 0 	 out = 200d
# time = 167 	 clk = 1 	 rst = 0 	 wrt = 0 	 str = 0 	 in  = 0 	 ack = 0 	 req = 0 	 out = 200d
# time = 168 	 clk = 0 	 rst = 0 	 wrt = 0 	 str = 0 	 in  = 0 	 ack = 0 	 req = 0 	 out = 200d
# time = 169 	 clk = 1 	 rst = 0 	 wrt = 0 	 str = 0 	 in  = 0 	 ack = 0 	 req = 0 	 out = 200e
# time = 170 	 clk = 0 	 rst = 0 	 wrt = 0 	 str = 0 	 in  = 0 	 ack = 0 	 req = 0 	 out = 200e
# time = 171 	 clk = 1 	 rst = 0 	 wrt = 0 	 str = 0 	 in  = 0 	 ack = 0 	 req = 1 	 out = 200e
# time = 172 	 clk = 0 	 rst = 0 	 wrt = 0 	 str = 0 	 in  = 0 	 ack = 0 	 req = 1 	 out = 200e
# time = 173 	 clk = 1 	 rst = 0 	 wrt = 0 	 str = 0 	 in  = 0 	 ack = 1 	 req = 1 	 out = 200e
# time = 174 	 clk = 0 	 rst = 0 	 wrt = 0 	 str = 0 	 in  = 0 	 ack = 1 	 req = 1 	 out = 200e
# time = 175 	 clk = 1 	 rst = 0 	 wrt = 0 	 str = 0 	 in  = 0 	 ack = 0 	 req = 0 	 out = 200e
# time = 176 	 clk = 0 	 rst = 0 	 wrt = 0 	 str = 0 	 in  = 0 	 ack = 0 	 req = 0 	 out = 200e
# time = 177 	 clk = 1 	 rst = 0 	 wrt = 0 	 str = 0 	 in  = 0 	 ack = 0 	 req = 0 	 out = 200e
# time = 178 	 clk = 0 	 rst = 0 	 wrt = 0 	 str = 0 	 in  = 0 	 ack = 0 	 req = 0 	 out = 200e
# time = 179 	 clk = 1 	 rst = 0 	 wrt = 0 	 str = 0 	 in  = 0 	 ack = 1 	 req = 0 	 out = 200f
# time = 180 	 clk = 0 	 rst = 0 	 wrt = 0 	 str = 0 	 in  = 0 	 ack = 1 	 req = 0 	 out = 200f
# time = 181 	 clk = 1 	 rst = 0 	 wrt = 0 	 str = 0 	 in  = 0 	 ack = 1 	 req = 0 	 out = 200f
# time = 182 	 clk = 0 	 rst = 0 	 wrt = 0 	 str = 0 	 in  = 0 	 ack = 1 	 req = 0 	 out = 200f
# time = 183 	 clk = 1 	 rst = 0 	 wrt = 0 	 str = 0 	 in  = 0 	 ack = 1 	 req = 0 	 out = 200f
# time = 184 	 clk = 0 	 rst = 0 	 wrt = 0 	 str = 0 	 in  = 0 	 ack = 1 	 req = 0 	 out = 200f
# time = 185 	 clk = 1 	 rst = 0 	 wrt = 0 	 str = 0 	 in  = 0 	 ack = 1 	 req = 0 	 out = 200f
# time = 186 	 clk = 0 	 rst = 0 	 wrt = 0 	 str = 0 	 in  = 0 	 ack = 1 	 req = 0 	 out = 200f
# time = 187 	 clk = 1 	 rst = 0 	 wrt = 0 	 str = 0 	 in  = 0 	 ack = 1 	 req = 0 	 out = 200f
# time = 188 	 clk = 0 	 rst = 0 	 wrt = 0 	 str = 0 	 in  = 0 	 ack = 1 	 req = 0 	 out = 200f
# time = 189 	 clk = 1 	 rst = 0 	 wrt = 0 	 str = 0 	 in  = 0 	 ack = 1 	 req = 0 	 out = 200f
# time = 190 	 clk = 0 	 rst = 0 	 wrt = 0 	 str = 0 	 in  = 0 	 ack = 1 	 req = 0 	 out = 200f
# time = 191 	 clk = 1 	 rst = 0 	 wrt = 0 	 str = 0 	 in  = 0 	 ack = 1 	 req = 0 	 out = 200f
# time = 192 	 clk = 0 	 rst = 0 	 wrt = 0 	 str = 0 	 in  = 0 	 ack = 1 	 req = 0 	 out = 200f
