projeto01/sender/simulation/modelsim/msim_transcript
# Reading pref.tcl
# do transmitter_run_msim_rtl_verilog.do
# if {[file exists rtl_work]} {
# 	vdel -lib rtl_work -all
# }
# vlib rtl_work
# vmap work rtl_work
# Model Technology ModelSim - Intel FPGA Edition vmap 2020.1 Lib Mapping Utility 2020.02 Feb 28 2020
# vmap work rtl_work 
# Copying C:/intelFPGA_lite/20.1/modelsim_ase/win32aloem/../modelsim.ini to modelsim.ini
# Modifying modelsim.ini
# 
# vlog -vlog01compat -work work +incdir+C:/Users/Leon/Desktop/universidade/PCID/projetos/projeto01/sender {C:/Users/Leon/Desktop/universidade/PCID/projetos/projeto01/sender/sender_memory.v}
# Model Technology ModelSim - Intel FPGA Edition vlog 2020.1 Compiler 2020.02 Feb 28 2020
# Start time: 13:16:03 on Oct 21,2022
# vlog -reportprogress 300 -vlog01compat -work work "+incdir+C:/Users/Leon/Desktop/universidade/PCID/projetos/projeto01/sender" C:/Users/Leon/Desktop/universidade/PCID/projetos/projeto01/sender/sender_memory.v 
# -- Compiling module sender_memory
# ** Warning: C:/Users/Leon/Desktop/universidade/PCID/projetos/projeto01/sender/sender_memory.v(10): (vlog-2600) [RDGN] - Redundant digits in numeric literal.
# ** Warning: C:/Users/Leon/Desktop/universidade/PCID/projetos/projeto01/sender/sender_memory.v(11): (vlog-2600) [RDGN] - Redundant digits in numeric literal.
# ** Warning: C:/Users/Leon/Desktop/universidade/PCID/projetos/projeto01/sender/sender_memory.v(12): (vlog-2600) [RDGN] - Redundant digits in numeric literal.
# 
# Top level modules:
# 	sender_memory
# End time: 13:16:03 on Oct 21,2022, Elapsed time: 0:00:00
# Errors: 0, Warnings: 3
# vlog -vlog01compat -work work +incdir+C:/Users/Leon/Desktop/universidade/PCID/projetos/projeto01/sender {C:/Users/Leon/Desktop/universidade/PCID/projetos/projeto01/sender/sender_control.v}
# Model Technology ModelSim - Intel FPGA Edition vlog 2020.1 Compiler 2020.02 Feb 28 2020
# Start time: 13:16:04 on Oct 21,2022
# vlog -reportprogress 300 -vlog01compat -work work "+incdir+C:/Users/Leon/Desktop/universidade/PCID/projetos/projeto01/sender" C:/Users/Leon/Desktop/universidade/PCID/projetos/projeto01/sender/sender_control.v 
# -- Compiling module sender_control
# ** Warning: C:/Users/Leon/Desktop/universidade/PCID/projetos/projeto01/sender/sender_control.v(41): (vlog-2600) [RDGN] - Redundant digits in numeric literal.
# 
# Top level modules:
# 	sender_control
# End time: 13:16:04 on Oct 21,2022, Elapsed time: 0:00:00
# Errors: 0, Warnings: 1
# vlog -vlog01compat -work work +incdir+C:/Users/Leon/Desktop/universidade/PCID/projetos/projeto01/sender {C:/Users/Leon/Desktop/universidade/PCID/projetos/projeto01/sender/sender.v}
# Model Technology ModelSim - Intel FPGA Edition vlog 2020.1 Compiler 2020.02 Feb 28 2020
# Start time: 13:16:04 on Oct 21,2022
# vlog -reportprogress 300 -vlog01compat -work work "+incdir+C:/Users/Leon/Desktop/universidade/PCID/projetos/projeto01/sender" C:/Users/Leon/Desktop/universidade/PCID/projetos/projeto01/sender/sender.v 
# -- Compiling module sender
# ** Warning: C:/Users/Leon/Desktop/universidade/PCID/projetos/projeto01/sender/sender.v(12): (vlog-2600) [RDGN] - Redundant digits in numeric literal.
# ** Warning: C:/Users/Leon/Desktop/universidade/PCID/projetos/projeto01/sender/sender.v(13): (vlog-2600) [RDGN] - Redundant digits in numeric literal.
# ** Warning: C:/Users/Leon/Desktop/universidade/PCID/projetos/projeto01/sender/sender.v(14): (vlog-2600) [RDGN] - Redundant digits in numeric literal.
# ** Warning: C:/Users/Leon/Desktop/universidade/PCID/projetos/projeto01/sender/sender.v(15): (vlog-2600) [RDGN] - Redundant digits in numeric literal.
# ** Warning: C:/Users/Leon/Desktop/universidade/PCID/projetos/projeto01/sender/sender.v(16): (vlog-2600) [RDGN] - Redundant digits in numeric literal.
# ** Warning: C:/Users/Leon/Desktop/universidade/PCID/projetos/projeto01/sender/sender.v(17): (vlog-2600) [RDGN] - Redundant digits in numeric literal.
# 
# Top level modules:
# 	sender
# End time: 13:16:04 on Oct 21,2022, Elapsed time: 0:00:00
# Errors: 0, Warnings: 6
# 
# vlog -vlog01compat -work work +incdir+C:/Users/Leon/Desktop/universidade/PCID/projetos/projeto01/sender {C:/Users/Leon/Desktop/universidade/PCID/projetos/projeto01/sender/sender_control_tb.v}
# Model Technology ModelSim - Intel FPGA Edition vlog 2020.1 Compiler 2020.02 Feb 28 2020
# Start time: 13:16:04 on Oct 21,2022
# vlog -reportprogress 300 -vlog01compat -work work "+incdir+C:/Users/Leon/Desktop/universidade/PCID/projetos/projeto01/sender" C:/Users/Leon/Desktop/universidade/PCID/projetos/projeto01/sender/sender_control_tb.v 
# -- Compiling module sender_control_tb
# 
# Top level modules:
# 	sender_control_tb
# End time: 13:16:04 on Oct 21,2022, Elapsed time: 0:00:00
# Errors: 0, Warnings: 0
# 
# vsim -t 1ps -L altera_ver -L lpm_ver -L sgate_ver -L altera_mf_ver -L altera_lnsim_ver -L cycloneive_ver -L rtl_work -L work -voptargs="+acc"  sender_control_tb
# vsim -t 1ps -L altera_ver -L lpm_ver -L sgate_ver -L altera_mf_ver -L altera_lnsim_ver -L cycloneive_ver -L rtl_work -L work -voptargs=""+acc"" sender_control_tb 
# Start time: 13:16:04 on Oct 21,2022
# Loading work.sender_control_tb
# Loading work.sender_control
# Loading work.sender
# Loading work.sender_memory
# ** Warning: (vsim-3015) [PCDPC] - Port size (16) does not match connection size (1) for port 'sdrDataOut'. The port definition is at: C:/Users/Leon/Desktop/universidade/PCID/projetos/projeto01/sender/sender_control.v(4).
#    Time: 0 ps  Iteration: 0  Instance: /sender_control_tb/sc File: C:/Users/Leon/Desktop/universidade/PCID/projetos/projeto01/sender/sender_control_tb.v Line: 15
# 
# add wave *
# ** Warning: (vsim-WLF-5000) WLF file currently in use: vsim.wlf
#           File in use by: Leon  Hostname: DESKTOP-KJSGII7  ProcessID: 1564
#           Attempting to use alternate WLF file "./wlftvm8jmv".
# ** Warning: (vsim-WLF-5001) Could not open WLF file: vsim.wlf
#           Using alternate file: ./wlftvm8jmv
# view structure
# .main_pane.structure.interior.cs.body.struct
# view signals
# .main_pane.objects.interior.cs.body.tree
# run 300 ps
# time = 0 	 ste = 0 	 nst = 0 	 rst = 0 	 ack = 0 	 in  = 0 	 wrt = 0 	 str = 0 	 req = 0 	 out = 0
# time = 10 	 ste = 0 	 nst = 1 	 rst = 0 	 ack = 0 	 in  = 1000 	 wrt = 1 	 str = 0 	 req = 0 	 out = 0
# time = 11 	 ste = 1 	 nst = 2 	 rst = 0 	 ack = 0 	 in  = 1000 	 wrt = 1 	 str = 0 	 req = 0 	 out = 0
# time = 12 	 ste = 1 	 nst = 2 	 rst = 0 	 ack = 0 	 in  = 1000 	 wrt = 0 	 str = 0 	 req = 0 	 out = 0
# time = 13 	 ste = 2 	 nst = 0 	 rst = 0 	 ack = 0 	 in  = 1000 	 wrt = 0 	 str = 0 	 req = 0 	 out = 0
# time = 15 	 ste = 0 	 nst = 0 	 rst = 0 	 ack = 0 	 in  = 1000 	 wrt = 0 	 str = 0 	 req = 0 	 out = 0
# time = 16 	 ste = 0 	 nst = 1 	 rst = 0 	 ack = 0 	 in  = 1001 	 wrt = 1 	 str = 0 	 req = 0 	 out = 0
# time = 17 	 ste = 1 	 nst = 2 	 rst = 0 	 ack = 0 	 in  = 1001 	 wrt = 1 	 str = 0 	 req = 0 	 out = 0
# time = 18 	 ste = 1 	 nst = 2 	 rst = 0 	 ack = 0 	 in  = 1001 	 wrt = 0 	 str = 0 	 req = 0 	 out = 0
# time = 19 	 ste = 2 	 nst = 0 	 rst = 0 	 ack = 0 	 in  = 1001 	 wrt = 0 	 str = 0 	 req = 0 	 out = 0
# time = 21 	 ste = 0 	 nst = 0 	 rst = 0 	 ack = 0 	 in  = 1001 	 wrt = 0 	 str = 0 	 req = 0 	 out = 0
# time = 22 	 ste = 0 	 nst = 1 	 rst = 0 	 ack = 0 	 in  = 1002 	 wrt = 1 	 str = 0 	 req = 0 	 out = 0
# time = 23 	 ste = 1 	 nst = 2 	 rst = 0 	 ack = 0 	 in  = 1002 	 wrt = 1 	 str = 0 	 req = 0 	 out = 0
# time = 24 	 ste = 1 	 nst = 2 	 rst = 0 	 ack = 0 	 in  = 1002 	 wrt = 0 	 str = 0 	 req = 0 	 out = 0
# time = 25 	 ste = 2 	 nst = 0 	 rst = 0 	 ack = 0 	 in  = 1002 	 wrt = 0 	 str = 0 	 req = 0 	 out = 0
# time = 27 	 ste = 0 	 nst = 0 	 rst = 0 	 ack = 0 	 in  = 1002 	 wrt = 0 	 str = 0 	 req = 0 	 out = 0
# time = 28 	 ste = 0 	 nst = 1 	 rst = 0 	 ack = 0 	 in  = 1003 	 wrt = 1 	 str = 0 	 req = 0 	 out = 0
# time = 29 	 ste = 1 	 nst = 2 	 rst = 0 	 ack = 0 	 in  = 1003 	 wrt = 1 	 str = 0 	 req = 0 	 out = 0
# time = 30 	 ste = 1 	 nst = 2 	 rst = 0 	 ack = 0 	 in  = 1003 	 wrt = 0 	 str = 0 	 req = 0 	 out = 0
# time = 31 	 ste = 2 	 nst = 0 	 rst = 0 	 ack = 0 	 in  = 1003 	 wrt = 0 	 str = 0 	 req = 0 	 out = 0
# time = 33 	 ste = 0 	 nst = 0 	 rst = 0 	 ack = 0 	 in  = 1003 	 wrt = 0 	 str = 0 	 req = 0 	 out = 0
# time = 34 	 ste = 0 	 nst = 1 	 rst = 0 	 ack = 0 	 in  = 1004 	 wrt = 1 	 str = 0 	 req = 0 	 out = 0
# time = 35 	 ste = 1 	 nst = 2 	 rst = 0 	 ack = 0 	 in  = 1004 	 wrt = 1 	 str = 0 	 req = 0 	 out = 0
# time = 36 	 ste = 1 	 nst = 2 	 rst = 0 	 ack = 0 	 in  = 1004 	 wrt = 0 	 str = 0 	 req = 0 	 out = 0
# time = 37 	 ste = 2 	 nst = 0 	 rst = 0 	 ack = 0 	 in  = 1004 	 wrt = 0 	 str = 0 	 req = 0 	 out = 0
# time = 39 	 ste = 0 	 nst = 0 	 rst = 0 	 ack = 0 	 in  = 1004 	 wrt = 0 	 str = 0 	 req = 0 	 out = 0
# time = 40 	 ste = 0 	 nst = 1 	 rst = 0 	 ack = 0 	 in  = 1005 	 wrt = 1 	 str = 0 	 req = 0 	 out = 0
# time = 41 	 ste = 1 	 nst = 2 	 rst = 0 	 ack = 0 	 in  = 1005 	 wrt = 1 	 str = 0 	 req = 0 	 out = 0
# time = 42 	 ste = 1 	 nst = 2 	 rst = 0 	 ack = 0 	 in  = 1005 	 wrt = 0 	 str = 0 	 req = 0 	 out = 0
# time = 43 	 ste = 2 	 nst = 0 	 rst = 0 	 ack = 0 	 in  = 1005 	 wrt = 0 	 str = 0 	 req = 0 	 out = 0
# time = 45 	 ste = 0 	 nst = 0 	 rst = 0 	 ack = 0 	 in  = 1005 	 wrt = 0 	 str = 0 	 req = 0 	 out = 0
# time = 46 	 ste = 0 	 nst = 1 	 rst = 0 	 ack = 0 	 in  = 1006 	 wrt = 1 	 str = 0 	 req = 0 	 out = 0
# time = 47 	 ste = 1 	 nst = 2 	 rst = 0 	 ack = 0 	 in  = 1006 	 wrt = 1 	 str = 0 	 req = 0 	 out = 0
# time = 48 	 ste = 1 	 nst = 2 	 rst = 0 	 ack = 0 	 in  = 1006 	 wrt = 0 	 str = 0 	 req = 0 	 out = 0
# time = 49 	 ste = 2 	 nst = 0 	 rst = 0 	 ack = 0 	 in  = 1006 	 wrt = 0 	 str = 0 	 req = 0 	 out = 0
# time = 51 	 ste = 0 	 nst = 0 	 rst = 0 	 ack = 0 	 in  = 1006 	 wrt = 0 	 str = 0 	 req = 0 	 out = 0
# time = 52 	 ste = 0 	 nst = 1 	 rst = 0 	 ack = 0 	 in  = 1007 	 wrt = 1 	 str = 0 	 req = 0 	 out = 0
# time = 53 	 ste = 1 	 nst = 2 	 rst = 0 	 ack = 0 	 in  = 1007 	 wrt = 1 	 str = 0 	 req = 0 	 out = 0
# time = 54 	 ste = 1 	 nst = 2 	 rst = 0 	 ack = 0 	 in  = 1007 	 wrt = 0 	 str = 0 	 req = 0 	 out = 0
# time = 55 	 ste = 2 	 nst = 0 	 rst = 0 	 ack = 0 	 in  = 1007 	 wrt = 0 	 str = 0 	 req = 0 	 out = 0
# time = 57 	 ste = 0 	 nst = 0 	 rst = 0 	 ack = 0 	 in  = 1007 	 wrt = 0 	 str = 0 	 req = 0 	 out = 0
# time = 58 	 ste = 0 	 nst = 1 	 rst = 0 	 ack = 0 	 in  = 1008 	 wrt = 1 	 str = 0 	 req = 0 	 out = 0
# time = 59 	 ste = 1 	 nst = 2 	 rst = 0 	 ack = 0 	 in  = 1008 	 wrt = 1 	 str = 0 	 req = 0 	 out = 0
# time = 60 	 ste = 1 	 nst = 2 	 rst = 0 	 ack = 0 	 in  = 1008 	 wrt = 0 	 str = 0 	 req = 0 	 out = 0
# time = 61 	 ste = 2 	 nst = 0 	 rst = 0 	 ack = 0 	 in  = 1008 	 wrt = 0 	 str = 0 	 req = 0 	 out = 0
# time = 63 	 ste = 0 	 nst = 0 	 rst = 0 	 ack = 0 	 in  = 1008 	 wrt = 0 	 str = 0 	 req = 0 	 out = 0
# time = 64 	 ste = 0 	 nst = 1 	 rst = 0 	 ack = 0 	 in  = 1009 	 wrt = 1 	 str = 0 	 req = 0 	 out = 0
# time = 65 	 ste = 1 	 nst = 2 	 rst = 0 	 ack = 0 	 in  = 1009 	 wrt = 1 	 str = 0 	 req = 0 	 out = 0
# time = 66 	 ste = 1 	 nst = 2 	 rst = 0 	 ack = 0 	 in  = 1009 	 wrt = 0 	 str = 0 	 req = 0 	 out = 0
# time = 67 	 ste = 2 	 nst = 0 	 rst = 0 	 ack = 0 	 in  = 1009 	 wrt = 0 	 str = 0 	 req = 0 	 out = 0
# time = 69 	 ste = 0 	 nst = 0 	 rst = 0 	 ack = 0 	 in  = 1009 	 wrt = 0 	 str = 0 	 req = 0 	 out = 0
# time = 70 	 ste = 0 	 nst = 1 	 rst = 0 	 ack = 0 	 in  = 100a 	 wrt = 1 	 str = 0 	 req = 0 	 out = 0
# time = 71 	 ste = 1 	 nst = 2 	 rst = 0 	 ack = 0 	 in  = 100a 	 wrt = 1 	 str = 0 	 req = 0 	 out = 0
# time = 72 	 ste = 1 	 nst = 2 	 rst = 0 	 ack = 0 	 in  = 100a 	 wrt = 0 	 str = 0 	 req = 0 	 out = 0
# time = 73 	 ste = 2 	 nst = 0 	 rst = 0 	 ack = 0 	 in  = 100a 	 wrt = 0 	 str = 0 	 req = 0 	 out = 0
# time = 75 	 ste = 0 	 nst = 0 	 rst = 0 	 ack = 0 	 in  = 100a 	 wrt = 0 	 str = 0 	 req = 0 	 out = 0
# time = 76 	 ste = 0 	 nst = 1 	 rst = 0 	 ack = 0 	 in  = 100b 	 wrt = 1 	 str = 0 	 req = 0 	 out = 0
# time = 77 	 ste = 1 	 nst = 2 	 rst = 0 	 ack = 0 	 in  = 100b 	 wrt = 1 	 str = 0 	 req = 0 	 out = 0
# time = 78 	 ste = 1 	 nst = 2 	 rst = 0 	 ack = 0 	 in  = 100b 	 wrt = 0 	 str = 0 	 req = 0 	 out = 0
# time = 79 	 ste = 2 	 nst = 0 	 rst = 0 	 ack = 0 	 in  = 100b 	 wrt = 0 	 str = 0 	 req = 0 	 out = 0
# time = 81 	 ste = 0 	 nst = 0 	 rst = 0 	 ack = 0 	 in  = 100b 	 wrt = 0 	 str = 0 	 req = 0 	 out = 0
# time = 82 	 ste = 0 	 nst = 1 	 rst = 0 	 ack = 0 	 in  = 100c 	 wrt = 1 	 str = 0 	 req = 0 	 out = 0
# time = 83 	 ste = 1 	 nst = 2 	 rst = 0 	 ack = 0 	 in  = 100c 	 wrt = 1 	 str = 0 	 req = 0 	 out = 0
# time = 84 	 ste = 1 	 nst = 2 	 rst = 0 	 ack = 0 	 in  = 100c 	 wrt = 0 	 str = 0 	 req = 0 	 out = 0
# time = 85 	 ste = 2 	 nst = 0 	 rst = 0 	 ack = 0 	 in  = 100c 	 wrt = 0 	 str = 0 	 req = 0 	 out = 0
# time = 87 	 ste = 0 	 nst = 0 	 rst = 0 	 ack = 0 	 in  = 100c 	 wrt = 0 	 str = 0 	 req = 0 	 out = 0
# time = 88 	 ste = 0 	 nst = 1 	 rst = 0 	 ack = 0 	 in  = 100d 	 wrt = 1 	 str = 0 	 req = 0 	 out = 0
# time = 89 	 ste = 1 	 nst = 2 	 rst = 0 	 ack = 0 	 in  = 100d 	 wrt = 1 	 str = 0 	 req = 0 	 out = 0
# time = 90 	 ste = 1 	 nst = 2 	 rst = 0 	 ack = 0 	 in  = 100d 	 wrt = 0 	 str = 0 	 req = 0 	 out = 0
# time = 91 	 ste = 2 	 nst = 0 	 rst = 0 	 ack = 0 	 in  = 100d 	 wrt = 0 	 str = 0 	 req = 0 	 out = 0
# time = 93 	 ste = 0 	 nst = 0 	 rst = 0 	 ack = 0 	 in  = 100d 	 wrt = 0 	 str = 0 	 req = 0 	 out = 0
# time = 94 	 ste = 0 	 nst = 1 	 rst = 0 	 ack = 0 	 in  = 100e 	 wrt = 1 	 str = 0 	 req = 0 	 out = 0
# time = 95 	 ste = 1 	 nst = 2 	 rst = 0 	 ack = 0 	 in  = 100e 	 wrt = 1 	 str = 0 	 req = 0 	 out = 0
# time = 96 	 ste = 1 	 nst = 2 	 rst = 0 	 ack = 0 	 in  = 100e 	 wrt = 0 	 str = 0 	 req = 0 	 out = 0
# time = 97 	 ste = 2 	 nst = 0 	 rst = 0 	 ack = 0 	 in  = 100e 	 wrt = 0 	 str = 0 	 req = 0 	 out = 0
# time = 99 	 ste = 0 	 nst = 0 	 rst = 0 	 ack = 0 	 in  = 100e 	 wrt = 0 	 str = 0 	 req = 0 	 out = 0
# time = 100 	 ste = 0 	 nst = 1 	 rst = 0 	 ack = 0 	 in  = 100f 	 wrt = 1 	 str = 0 	 req = 0 	 out = 0
# time = 101 	 ste = 1 	 nst = 2 	 rst = 0 	 ack = 0 	 in  = 100f 	 wrt = 1 	 str = 0 	 req = 0 	 out = 0
# time = 102 	 ste = 1 	 nst = 2 	 rst = 0 	 ack = 0 	 in  = 100f 	 wrt = 0 	 str = 0 	 req = 0 	 out = 0
# time = 103 	 ste = 2 	 nst = 0 	 rst = 0 	 ack = 0 	 in  = 100f 	 wrt = 0 	 str = 0 	 req = 0 	 out = 0
# time = 105 	 ste = 0 	 nst = 0 	 rst = 0 	 ack = 0 	 in  = 100f 	 wrt = 0 	 str = 0 	 req = 0 	 out = 0
# time = 106 	 ste = 0 	 nst = 1 	 rst = 0 	 ack = 0 	 in  = 1010 	 wrt = 1 	 str = 0 	 req = 0 	 out = 0
# time = 107 	 ste = 1 	 nst = 2 	 rst = 0 	 ack = 0 	 in  = 1010 	 wrt = 1 	 str = 0 	 req = 0 	 out = 0
# time = 108 	 ste = 1 	 nst = 2 	 rst = 0 	 ack = 0 	 in  = 1010 	 wrt = 0 	 str = 0 	 req = 0 	 out = 0
# time = 109 	 ste = 2 	 nst = 0 	 rst = 0 	 ack = 0 	 in  = 1010 	 wrt = 0 	 str = 0 	 req = 0 	 out = 0
# time = 111 	 ste = 0 	 nst = 0 	 rst = 0 	 ack = 0 	 in  = 1010 	 wrt = 0 	 str = 0 	 req = 0 	 out = 0
# time = 112 	 ste = 0 	 nst = 1 	 rst = 0 	 ack = 0 	 in  = 1011 	 wrt = 1 	 str = 0 	 req = 0 	 out = 0
# time = 113 	 ste = 1 	 nst = 2 	 rst = 0 	 ack = 0 	 in  = 1011 	 wrt = 1 	 str = 0 	 req = 0 	 out = 0
# time = 114 	 ste = 1 	 nst = 2 	 rst = 0 	 ack = 0 	 in  = 1011 	 wrt = 0 	 str = 0 	 req = 0 	 out = 0
# time = 115 	 ste = 2 	 nst = 0 	 rst = 0 	 ack = 0 	 in  = 1011 	 wrt = 0 	 str = 0 	 req = 0 	 out = 0
# time = 117 	 ste = 0 	 nst = 0 	 rst = 0 	 ack = 0 	 in  = 1011 	 wrt = 0 	 str = 0 	 req = 0 	 out = 0
# time = 124 	 ste = 0 	 nst = 3 	 rst = 0 	 ack = 0 	 in  = 1011 	 wrt = 0 	 str = 1 	 req = 0 	 out = 0
# time = 125 	 ste = 3 	 nst = 4 	 rst = 0 	 ack = 0 	 in  = 1011 	 wrt = 0 	 str = 1 	 req = 0 	 out = 0
# time = 126 	 ste = 3 	 nst = 4 	 rst = 0 	 ack = 0 	 in  = 1011 	 wrt = 0 	 str = 0 	 req = 0 	 out = 0
# time = 127 	 ste = 4 	 nst = 5 	 rst = 0 	 ack = 0 	 in  = 1011 	 wrt = 0 	 str = 0 	 req = 0 	 out = 0
# time = 129 	 ste = 5 	 nst = 6 	 rst = 0 	 ack = 0 	 in  = 1011 	 wrt = 0 	 str = 0 	 req = 0 	 out = 0
# time = 131 	 ste = 6 	 nst = 7 	 rst = 0 	 ack = 0 	 in  = 1011 	 wrt = 0 	 str = 0 	 req = 0 	 out = 0
# time = 133 	 ste = 7 	 nst = 8 	 rst = 0 	 ack = 0 	 in  = 1011 	 wrt = 0 	 str = 0 	 req = 0 	 out = 0
# time = 135 	 ste = 8 	 nst = 8 	 rst = 0 	 ack = 0 	 in  = 1011 	 wrt = 0 	 str = 0 	 req = 1 	 out = 0
# time = 137 	 ste = 8 	 nst = 8 	 rst = 0 	 ack = 1 	 in  = 1011 	 wrt = 0 	 str = 0 	 req = 1 	 out = 0
# time = 139 	 ste = 8 	 nst = 3 	 rst = 0 	 ack = 0 	 in  = 1011 	 wrt = 0 	 str = 0 	 req = 0 	 out = 0
# time = 141 	 ste = 3 	 nst = 4 	 rst = 0 	 ack = 0 	 in  = 1011 	 wrt = 0 	 str = 0 	 req = 0 	 out = 0
# time = 143 	 ste = 4 	 nst = 8 	 rst = 0 	 ack = 0 	 in  = 1011 	 wrt = 0 	 str = 0 	 req = 0 	 out = 0
# time = 145 	 ste = 8 	 nst = 8 	 rst = 0 	 ack = 0 	 in  = 1011 	 wrt = 0 	 str = 0 	 req = 1 	 out = 0
# time = 147 	 ste = 8 	 nst = 8 	 rst = 0 	 ack = 1 	 in  = 1011 	 wrt = 0 	 str = 0 	 req = 1 	 out = 0
# time = 149 	 ste = 8 	 nst = 3 	 rst = 0 	 ack = 0 	 in  = 1011 	 wrt = 0 	 str = 0 	 req = 0 	 out = 0
# time = 151 	 ste = 3 	 nst = 4 	 rst = 0 	 ack = 0 	 in  = 1011 	 wrt = 0 	 str = 0 	 req = 0 	 out = 0
# time = 153 	 ste = 4 	 nst = 8 	 rst = 0 	 ack = 0 	 in  = 1011 	 wrt = 0 	 str = 0 	 req = 0 	 out = 1
# time = 155 	 ste = 8 	 nst = 8 	 rst = 0 	 ack = 0 	 in  = 1011 	 wrt = 0 	 str = 0 	 req = 1 	 out = 1
# time = 157 	 ste = 8 	 nst = 8 	 rst = 0 	 ack = 1 	 in  = 1011 	 wrt = 0 	 str = 0 	 req = 1 	 out = 1
# time = 159 	 ste = 8 	 nst = 3 	 rst = 0 	 ack = 0 	 in  = 1011 	 wrt = 0 	 str = 0 	 req = 0 	 out = 1
# time = 161 	 ste = 3 	 nst = 4 	 rst = 0 	 ack = 0 	 in  = 1011 	 wrt = 0 	 str = 0 	 req = 0 	 out = 1
# time = 163 	 ste = 4 	 nst = 8 	 rst = 0 	 ack = 0 	 in  = 1011 	 wrt = 0 	 str = 0 	 req = 0 	 out = 0
# time = 165 	 ste = 8 	 nst = 8 	 rst = 0 	 ack = 0 	 in  = 1011 	 wrt = 0 	 str = 0 	 req = 1 	 out = 0
# time = 167 	 ste = 8 	 nst = 8 	 rst = 0 	 ack = 1 	 in  = 1011 	 wrt = 0 	 str = 0 	 req = 1 	 out = 0
# time = 169 	 ste = 8 	 nst = 3 	 rst = 0 	 ack = 0 	 in  = 1011 	 wrt = 0 	 str = 0 	 req = 0 	 out = 0
# time = 171 	 ste = 3 	 nst = 4 	 rst = 0 	 ack = 0 	 in  = 1011 	 wrt = 0 	 str = 0 	 req = 0 	 out = 0
# time = 173 	 ste = 4 	 nst = 8 	 rst = 0 	 ack = 0 	 in  = 1011 	 wrt = 0 	 str = 0 	 req = 0 	 out = 1
# time = 175 	 ste = 8 	 nst = 8 	 rst = 0 	 ack = 0 	 in  = 1011 	 wrt = 0 	 str = 0 	 req = 1 	 out = 1
# time = 177 	 ste = 8 	 nst = 8 	 rst = 0 	 ack = 1 	 in  = 1011 	 wrt = 0 	 str = 0 	 req = 1 	 out = 1
# time = 179 	 ste = 8 	 nst = 3 	 rst = 0 	 ack = 0 	 in  = 1011 	 wrt = 0 	 str = 0 	 req = 0 	 out = 1
# time = 181 	 ste = 3 	 nst = 4 	 rst = 0 	 ack = 0 	 in  = 1011 	 wrt = 0 	 str = 0 	 req = 0 	 out = 1
# time = 183 	 ste = 4 	 nst = 8 	 rst = 0 	 ack = 0 	 in  = 1011 	 wrt = 0 	 str = 0 	 req = 0 	 out = 0
# time = 185 	 ste = 8 	 nst = 8 	 rst = 0 	 ack = 0 	 in  = 1011 	 wrt = 0 	 str = 0 	 req = 1 	 out = 0
# time = 187 	 ste = 8 	 nst = 8 	 rst = 0 	 ack = 1 	 in  = 1011 	 wrt = 0 	 str = 0 	 req = 1 	 out = 0
# time = 189 	 ste = 8 	 nst = 3 	 rst = 0 	 ack = 0 	 in  = 1011 	 wrt = 0 	 str = 0 	 req = 0 	 out = 0
# time = 191 	 ste = 3 	 nst = 4 	 rst = 0 	 ack = 0 	 in  = 1011 	 wrt = 0 	 str = 0 	 req = 0 	 out = 0
# time = 193 	 ste = 4 	 nst = 8 	 rst = 0 	 ack = 0 	 in  = 1011 	 wrt = 0 	 str = 0 	 req = 0 	 out = 1
# time = 195 	 ste = 8 	 nst = 8 	 rst = 0 	 ack = 0 	 in  = 1011 	 wrt = 0 	 str = 0 	 req = 1 	 out = 1
# time = 197 	 ste = 8 	 nst = 8 	 rst = 0 	 ack = 1 	 in  = 1011 	 wrt = 0 	 str = 0 	 req = 1 	 out = 1
# time = 199 	 ste = 8 	 nst = 3 	 rst = 0 	 ack = 0 	 in  = 1011 	 wrt = 0 	 str = 0 	 req = 0 	 out = 1
# time = 201 	 ste = 3 	 nst = 4 	 rst = 0 	 ack = 0 	 in  = 1011 	 wrt = 0 	 str = 0 	 req = 0 	 out = 1
# time = 203 	 ste = 4 	 nst = 8 	 rst = 0 	 ack = 0 	 in  = 1011 	 wrt = 0 	 str = 0 	 req = 0 	 out = 0
# time = 205 	 ste = 8 	 nst = 8 	 rst = 0 	 ack = 0 	 in  = 1011 	 wrt = 0 	 str = 0 	 req = 1 	 out = 0
# time = 207 	 ste = 8 	 nst = 8 	 rst = 0 	 ack = 1 	 in  = 1011 	 wrt = 0 	 str = 0 	 req = 1 	 out = 0
# time = 209 	 ste = 8 	 nst = 3 	 rst = 0 	 ack = 0 	 in  = 1011 	 wrt = 0 	 str = 0 	 req = 0 	 out = 0
# time = 211 	 ste = 3 	 nst = 4 	 rst = 0 	 ack = 0 	 in  = 1011 	 wrt = 0 	 str = 0 	 req = 0 	 out = 0
# time = 213 	 ste = 4 	 nst = 8 	 rst = 0 	 ack = 0 	 in  = 1011 	 wrt = 0 	 str = 0 	 req = 0 	 out = 1
# time = 215 	 ste = 8 	 nst = 8 	 rst = 0 	 ack = 0 	 in  = 1011 	 wrt = 0 	 str = 0 	 req = 1 	 out = 1
# time = 217 	 ste = 8 	 nst = 8 	 rst = 0 	 ack = 1 	 in  = 1011 	 wrt = 0 	 str = 0 	 req = 1 	 out = 1
# time = 219 	 ste = 8 	 nst = 3 	 rst = 0 	 ack = 0 	 in  = 1011 	 wrt = 0 	 str = 0 	 req = 0 	 out = 1
# time = 221 	 ste = 3 	 nst = 4 	 rst = 0 	 ack = 0 	 in  = 1011 	 wrt = 0 	 str = 0 	 req = 0 	 out = 1
# time = 223 	 ste = 4 	 nst = 8 	 rst = 0 	 ack = 0 	 in  = 1011 	 wrt = 0 	 str = 0 	 req = 0 	 out = 0
# time = 225 	 ste = 8 	 nst = 8 	 rst = 0 	 ack = 0 	 in  = 1011 	 wrt = 0 	 str = 0 	 req = 1 	 out = 0
# time = 227 	 ste = 8 	 nst = 8 	 rst = 0 	 ack = 1 	 in  = 1011 	 wrt = 0 	 str = 0 	 req = 1 	 out = 0
# time = 229 	 ste = 8 	 nst = 3 	 rst = 0 	 ack = 0 	 in  = 1011 	 wrt = 0 	 str = 0 	 req = 0 	 out = 0
# time = 231 	 ste = 3 	 nst = 4 	 rst = 0 	 ack = 0 	 in  = 1011 	 wrt = 0 	 str = 0 	 req = 0 	 out = 0
# time = 233 	 ste = 4 	 nst = 8 	 rst = 0 	 ack = 0 	 in  = 1011 	 wrt = 0 	 str = 0 	 req = 0 	 out = 1
# time = 235 	 ste = 8 	 nst = 8 	 rst = 0 	 ack = 0 	 in  = 1011 	 wrt = 0 	 str = 0 	 req = 1 	 out = 1
# time = 237 	 ste = 8 	 nst = 8 	 rst = 0 	 ack = 1 	 in  = 1011 	 wrt = 0 	 str = 0 	 req = 1 	 out = 1
# time = 239 	 ste = 8 	 nst = 3 	 rst = 0 	 ack = 0 	 in  = 1011 	 wrt = 0 	 str = 0 	 req = 0 	 out = 1
# time = 241 	 ste = 3 	 nst = 4 	 rst = 0 	 ack = 0 	 in  = 1011 	 wrt = 0 	 str = 0 	 req = 0 	 out = 1
# time = 243 	 ste = 4 	 nst = 8 	 rst = 0 	 ack = 0 	 in  = 1011 	 wrt = 0 	 str = 0 	 req = 0 	 out = 0
